%YAML 1.1
%TAG !u! tag:unity3d.com,2011:
--- !u!74 &7400000
AnimationClip:
  m_ObjectHideFlags: 0
  m_PrefabParentObject: {fileID: 0}
  m_PrefabInternal: {fileID: 0}
  m_Name: ShootingStar
  serializedVersion: 4
  m_AnimationType: 2
  m_Compressed: 0
  m_UseHighQualityCurve: 1
  m_RotationCurves: []
  m_CompressedRotationCurves: []
  m_PositionCurves: []
  m_ScaleCurves: []
  m_FloatCurves: []
  m_PPtrCurves:
  - curve:
    - time: -.0833333358
      value: {fileID: 21300000, guid: 9d5bf7632fd380a49bfc097193076c2d, type: 3}
    - time: -.0416666679
      value: {fileID: 21300002, guid: 9d5bf7632fd380a49bfc097193076c2d, type: 3}
    - time: -1.24176347e-09
      value: {fileID: 21300004, guid: 9d5bf7632fd380a49bfc097193076c2d, type: 3}
    - time: .0416666642
      value: {fileID: 21300006, guid: 9d5bf7632fd380a49bfc097193076c2d, type: 3}
    - time: .0833333284
      value: {fileID: 21300008, guid: 9d5bf7632fd380a49bfc097193076c2d, type: 3}
    - time: .124999993
      value: {fileID: 21300010, guid: 9d5bf7632fd380a49bfc097193076c2d, type: 3}
    - time: .166666657
      value: {fileID: 21300012, guid: 9d5bf7632fd380a49bfc097193076c2d, type: 3}
    - time: .208333328
      value: {fileID: 21300014, guid: 9d5bf7632fd380a49bfc097193076c2d, type: 3}
    - time: .25
      value: {fileID: 21300016, guid: 9d5bf7632fd380a49bfc097193076c2d, type: 3}
    - time: .291666657
      value: {fileID: 21300018, guid: 9d5bf7632fd380a49bfc097193076c2d, type: 3}
    - time: .333333313
      value: {fileID: 21300020, guid: 9d5bf7632fd380a49bfc097193076c2d, type: 3}
    - time: .37499997
      value: {fileID: 21300022, guid: 9d5bf7632fd380a49bfc097193076c2d, type: 3}
    - time: .416666627
      value: {fileID: 21300024, guid: 9d5bf7632fd380a49bfc097193076c2d, type: 3}
    - time: .458333284
      value: {fileID: 21300026, guid: 9d5bf7632fd380a49bfc097193076c2d, type: 3}
    - time: .49999994
      value: {fileID: 21300028, guid: 9d5bf7632fd380a49bfc097193076c2d, type: 3}
    - time: .541666627
      value: {fileID: 21300030, guid: 9d5bf7632fd380a49bfc097193076c2d, type: 3}
    - time: .583333313
      value: {fileID: 21300032, guid: 9d5bf7632fd380a49bfc097193076c2d, type: 3}
    - time: .625
      value: {fileID: 21300034, guid: 9d5bf7632fd380a49bfc097193076c2d, type: 3}
    - time: .666666687
      value: {fileID: 21300036, guid: 9d5bf7632fd380a49bfc097193076c2d, type: 3}
    - time: .708333373
      value: {fileID: 21300038, guid: 9d5bf7632fd380a49bfc097193076c2d, type: 3}
    - time: .75000006
      value: {fileID: 21300040, guid: 9d5bf7632fd380a49bfc097193076c2d, type: 3}
    - time: .791666746
      value: {fileID: 21300042, guid: 9d5bf7632fd380a49bfc097193076c2d, type: 3}
    - time: .833333433
      value: {fileID: 21300044, guid: 9d5bf7632fd380a49bfc097193076c2d, type: 3}
    - time: .875000119
      value: {fileID: 21300046, guid: 9d5bf7632fd380a49bfc097193076c2d, type: 3}
    - time: .916666806
      value: {fileID: 21300048, guid: 9d5bf7632fd380a49bfc097193076c2d, type: 3}
    - time: .958333492
      value: {fileID: 21300050, guid: 9d5bf7632fd380a49bfc097193076c2d, type: 3}
    - time: 1.00000012
      value: {fileID: 21300052, guid: 9d5bf7632fd380a49bfc097193076c2d, type: 3}
    - time: 1.04166675
      value: {fileID: 21300054, guid: 9d5bf7632fd380a49bfc097193076c2d, type: 3}
    - time: 1.08333337
      value: {fileID: 21300056, guid: 9d5bf7632fd380a49bfc097193076c2d, type: 3}
    - time: 1.125
      value: {fileID: 21300058, guid: 9d5bf7632fd380a49bfc097193076c2d, type: 3}
    - time: 1.16666663
      value: {fileID: 21300060, guid: 9d5bf7632fd380a49bfc097193076c2d, type: 3}
    - time: 1.20833325
      value: {fileID: 21300062, guid: 9d5bf7632fd380a49bfc097193076c2d, type: 3}
    - time: 1.24999988
      value: {fileID: 21300064, guid: 9d5bf7632fd380a49bfc097193076c2d, type: 3}
    - time: 1.29166651
      value: {fileID: 21300066, guid: 9d5bf7632fd380a49bfc097193076c2d, type: 3}
    - time: 1.33333313
      value: {fileID: 21300068, guid: 9d5bf7632fd380a49bfc097193076c2d, type: 3}
    - time: 1.375
      value: {fileID: 21300070, guid: 9d5bf7632fd380a49bfc097193076c2d, type: 3}
    - time: 1.41666663
      value: {fileID: 0}
    - time: 2.5
      value: {fileID: 21300000, guid: 9d5bf7632fd380a49bfc097193076c2d, type: 3}
    attribute: m_Sprite
    path: 
    classID: 212
    script: {fileID: 0}
  m_SampleRate: 24
  m_WrapMode: 0
  m_Bounds:
    m_Center: {x: 0, y: 0, z: 0}
    m_Extent: {x: 0, y: 0, z: 0}
  m_ClipBindingConstant:
    genericBindings:
    - path: 0
      attribute: 0
      script: {fileID: 0}
      classID: 212
      customType: 23
      isPPtrCurve: 1
    pptrCurveMapping:
    - {fileID: 21300000, guid: 9d5bf7632fd380a49bfc097193076c2d, type: 3}
    - {fileID: 21300002, guid: 9d5bf7632fd380a49bfc097193076c2d, type: 3}
    - {fileID: 21300004, guid: 9d5bf7632fd380a49bfc097193076c2d, type: 3}
    - {fileID: 21300006, guid: 9d5bf7632fd380a49bfc097193076c2d, type: 3}
    - {fileID: 21300008, guid: 9d5bf7632fd380a49bfc097193076c2d, type: 3}
    - {fileID: 21300010, guid: 9d5bf7632fd380a49bfc097193076c2d, type: 3}
    - {fileID: 21300012, guid: 9d5bf7632fd380a49bfc097193076c2d, type: 3}
    - {fileID: 21300014, guid: 9d5bf7632fd380a49bfc097193076c2d, type: 3}
    - {fileID: 21300016, guid: 9d5bf7632fd380a49bfc097193076c2d, type: 3}
    - {fileID: 21300018, guid: 9d5bf7632fd380a49bfc097193076c2d, type: 3}
    - {fileID: 21300020, guid: 9d5bf7632fd380a49bfc097193076c2d, type: 3}
    - {fileID: 21300022, guid: 9d5bf7632fd380a49bfc097193076c2d, type: 3}
    - {fileID: 21300024, guid: 9d5bf7632fd380a49bfc097193076c2d, type: 3}
    - {fileID: 21300026, guid: 9d5bf7632fd380a49bfc097193076c2d, type: 3}
    - {fileID: 21300028, guid: 9d5bf7632fd380a49bfc097193076c2d, type: 3}
    - {fileID: 21300030, guid: 9d5bf7632fd380a49bfc097193076c2d, type: 3}
    - {fileID: 21300032, guid: 9d5bf7632fd380a49bfc097193076c2d, type: 3}
    - {fileID: 21300034, guid: 9d5bf7632fd380a49bfc097193076c2d, type: 3}
    - {fileID: 21300036, guid: 9d5bf7632fd380a49bfc097193076c2d, type: 3}
    - {fileID: 21300038, guid: 9d5bf7632fd380a49bfc097193076c2d, type: 3}
    - {fileID: 21300040, guid: 9d5bf7632fd380a49bfc097193076c2d, type: 3}
    - {fileID: 21300042, guid: 9d5bf7632fd380a49bfc097193076c2d, type: 3}
    - {fileID: 21300044, guid: 9d5bf7632fd380a49bfc097193076c2d, type: 3}
    - {fileID: 21300046, guid: 9d5bf7632fd380a49bfc097193076c2d, type: 3}
    - {fileID: 21300048, guid: 9d5bf7632fd380a49bfc097193076c2d, type: 3}
    - {fileID: 21300050, guid: 9d5bf7632fd380a49bfc097193076c2d, type: 3}
    - {fileID: 21300052, guid: 9d5bf7632fd380a49bfc097193076c2d, type: 3}
    - {fileID: 21300054, guid: 9d5bf7632fd380a49bfc097193076c2d, type: 3}
    - {fileID: 21300056, guid: 9d5bf7632fd380a49bfc097193076c2d, type: 3}
    - {fileID: 21300058, guid: 9d5bf7632fd380a49bfc097193076c2d, type: 3}
    - {fileID: 21300060, guid: 9d5bf7632fd380a49bfc097193076c2d, type: 3}
    - {fileID: 21300062, guid: 9d5bf7632fd380a49bfc097193076c2d, type: 3}
    - {fileID: 21300064, guid: 9d5bf7632fd380a49bfc097193076c2d, type: 3}
    - {fileID: 21300066, guid: 9d5bf7632fd380a49bfc097193076c2d, type: 3}
    - {fileID: 21300068, guid: 9d5bf7632fd380a49bfc097193076c2d, type: 3}
    - {fileID: 21300070, guid: 9d5bf7632fd380a49bfc097193076c2d, type: 3}
    - {fileID: 0}
    - {fileID: 21300000, guid: 9d5bf7632fd380a49bfc097193076c2d, type: 3}
  m_AnimationClipSettings:
    serializedVersion: 2
    m_StartTime: 0
    m_StopTime: 2.54166675
    m_OrientationOffsetY: 0
    m_Level: 0
    m_CycleOffset: 0
    m_LoopTime: 0
    m_LoopBlend: 0
    m_LoopBlendOrientation: 0
    m_LoopBlendPositionY: 0
    m_LoopBlendPositionXZ: 0
    m_KeepOriginalOrientation: 0
    m_KeepOriginalPositionY: 1
    m_KeepOriginalPositionXZ: 0
    m_HeightFromFeet: 0
    m_Mirror: 0
  m_EditorCurves: []
  m_EulerEditorCurves: []
  m_Events: []
